10:12:30  bbbb : aaa
10:12:33   : bbbbbbb
10:12:50  aaaaaa : 
10:12:56  aaaaa : 
10:13:13  aaaaaa : 
10:13:45: bbb: aaaaaaasss
10:13:48: User: aaaaaaasss
07:18:21: ddd: aaaa
07:18:21: ddd: aaaa
07:18:27: User: aaaaaaaa
